{
  "curvesC0": [],
  "curvesC2": [],
  "curvesC2I": [],
  "points": [
    {
      "name": "point 0",
      "x": -3.0,
      "y": -1.600000023841858,
      "z": 0.0
    },
    {
      "name": "point 1",
      "x": -3.0,
      "y": -1.100000023841858,
      "z": -0.866025447845459
    },
    {
      "name": "point 2",
      "x": -3.0,
      "y": -0.09999996423721313,
      "z": -0.8660253882408142
    },
    {
      "name": "point 3",
      "x": -3.0,
      "y": 0.3999999761581421,
      "z": 8.742277657347586e-08
    },
    {
      "name": "point 4",
      "x": -3.0,
      "y": -0.10000011324882507,
      "z": 0.866025447845459
    },
    {
      "name": "point 5",
      "x": -3.0,
      "y": -1.1000003814697266,
      "z": 0.8660252094268799
    },
    {
      "name": "point 6",
      "x": -2.0,
      "y": 0.20000000298023224,
      "z": 0.0
    },
    {
      "name": "point 7",
      "x": -2.0,
      "y": 0.20000000298023224,
      "z": 0.0
    },
    {
      "name": "point 8",
      "x": -2.0,
      "y": 0.20000000298023224,
      "z": 0.0
    },
    {
      "name": "point 9",
      "x": -2.0,
      "y": 0.20000000298023224,
      "z": 0.0
    },
    {
      "name": "point 10",
      "x": -2.0,
      "y": 0.20000000298023224,
      "z": 0.0
    },
    {
      "name": "point 11",
      "x": -2.0,
      "y": 0.20000000298023224,
      "z": 0.0
    },
    {
      "name": "point 12",
      "x": -1.0,
      "y": 2.0,
      "z": 0.0
    },
    {
      "name": "point 13",
      "x": -1.0,
      "y": 1.5,
      "z": 0.866025447845459
    },
    {
      "name": "point 14",
      "x": -1.0,
      "y": 0.4999999403953552,
      "z": 0.8660253882408142
    },
    {
      "name": "point 15",
      "x": -1.0,
      "y": 0.0,
      "z": -8.742277657347586e-08
    },
    {
      "name": "point 16",
      "x": -1.0,
      "y": 0.5000001192092896,
      "z": -0.866025447845459
    },
    {
      "name": "point 17",
      "x": -1.0,
      "y": 1.5000003576278687,
      "z": -0.8660252094268799
    },
    {
      "name": "point 18",
      "x": 0.0,
      "y": 2.240000009536743,
      "z": 0.0
    },
    {
      "name": "point 19",
      "x": 0.0,
      "y": 1.5,
      "z": 0.8660000562667847
    },
    {
      "name": "point 20",
      "x": 0.0,
      "y": 0.4999999403953552,
      "z": 0.8660253882408142
    },
    {
      "name": "point 21",
      "x": 0.0,
      "y": 0.0,
      "z": -8.742277657347586e-08
    },
    {
      "name": "point 22",
      "x": 0.0,
      "y": 0.5000001192092896,
      "z": -0.866025447845459
    },
    {
      "name": "point 23",
      "x": 0.0,
      "y": 1.5000003576278687,
      "z": -0.8659999966621399
    },
    {
      "name": "point 24",
      "x": 1.0,
      "y": 2.0,
      "z": 0.0
    },
    {
      "name": "point 25",
      "x": 1.0,
      "y": 1.5,
      "z": 0.866025447845459
    },
    {
      "name": "point 26",
      "x": 1.0,
      "y": 1.540000081062317,
      "z": 0.0
    },
    {
      "name": "point 27",
      "x": 0.48000001907348633,
      "y": 0.7000000476837158,
      "z": -8.742277657347586e-08
    },
    {
      "name": "point 28",
      "x": 1.0,
      "y": 1.5399999618530273,
      "z": 0.0
    },
    {
      "name": "point 29",
      "x": 1.0,
      "y": 1.5000003576278687,
      "z": -0.8660252094268799
    },
    {
      "name": "point 30",
      "x": 2.0,
      "y": 1.9000000953674316,
      "z": 0.0
    },
    {
      "name": "point 31",
      "x": 2.0,
      "y": 1.75,
      "z": 0.25980764627456665
    },
    {
      "name": "point 32",
      "x": 2.0,
      "y": 1.4500000476837158,
      "z": 0.25980761647224426
    },
    {
      "name": "point 33",
      "x": 2.0,
      "y": 1.2999999523162842,
      "z": -2.622683403785686e-08
    },
    {
      "name": "point 34",
      "x": 2.0,
      "y": 1.4500000476837158,
      "z": -0.25980764627456665
    },
    {
      "name": "point 35",
      "x": 2.0,
      "y": 1.7500001192092896,
      "z": -0.2598075866699219
    },
    {
      "name": "point 36",
      "x": 3.0,
      "y": 1.9000000953674316,
      "z": 0.0
    },
    {
      "name": "point 37",
      "x": 3.0,
      "y": 1.75,
      "z": 0.25980764627456665
    },
    {
      "name": "point 38",
      "x": 3.0,
      "y": 1.4500000476837158,
      "z": 0.25980761647224426
    },
    {
      "name": "point 39",
      "x": 3.0,
      "y": 1.2999999523162842,
      "z": -2.622683403785686e-08
    },
    {
      "name": "point 40",
      "x": 3.0,
      "y": 1.4500000476837158,
      "z": -0.25980764627456665
    },
    {
      "name": "point 41",
      "x": 3.0,
      "y": 1.7500001192092896,
      "z": -0.2598075866699219
    },
    {
      "name": "point 42",
      "x": 5.0,
      "y": 1.9000000953674316,
      "z": 0.0
    },
    {
      "name": "point 43",
      "x": 5.0,
      "y": 1.75,
      "z": 0.25980764627456665
    },
    {
      "name": "point 44",
      "x": 5.0,
      "y": 1.4500000476837158,
      "z": 0.25980761647224426
    },
    {
      "name": "point 45",
      "x": 5.0,
      "y": 1.2999999523162842,
      "z": -2.622683403785686e-08
    },
    {
      "name": "point 46",
      "x": 5.0,
      "y": 1.4500000476837158,
      "z": -0.25980764627456665
    },
    {
      "name": "point 47",
      "x": 5.0,
      "y": 1.7500001192092896,
      "z": -0.2598075866699219
    },
    {
      "name": "point 48",
      "x": 5.400000095367432,
      "y": 1.9000000953674316,
      "z": 0.0
    },
    {
      "name": "point 49",
      "x": 5.400000095367432,
      "y": 1.75,
      "z": 0.25980764627456665
    },
    {
      "name": "point 50",
      "x": 5.400000095367432,
      "y": 1.4500000476837158,
      "z": 0.25980761647224426
    },
    {
      "name": "point 51",
      "x": 5.400000095367432,
      "y": 1.2999999523162842,
      "z": -2.622683403785686e-08
    },
    {
      "name": "point 52",
      "x": 5.400000095367432,
      "y": 1.4500000476837158,
      "z": -0.25980764627456665
    },
    {
      "name": "point 53",
      "x": 5.400000095367432,
      "y": 1.7500001192092896,
      "z": -0.2598075866699219
    },
    {
      "name": "point 54",
      "x": 5.800000190734863,
      "y": 1.600000023841858,
      "z": 0.0
    },
    {
      "name": "point 55",
      "x": 5.800000190734863,
      "y": 1.600000023841858,
      "z": 0.0
    },
    {
      "name": "point 56",
      "x": 5.800000190734863,
      "y": 1.600000023841858,
      "z": 0.0
    },
    {
      "name": "point 57",
      "x": 5.800000190734863,
      "y": 1.600000023841858,
      "z": 0.0
    },
    {
      "name": "point 58",
      "x": 5.800000190734863,
      "y": 1.600000023841858,
      "z": 0.0
    },
    {
      "name": "point 59",
      "x": 5.800000190734863,
      "y": 1.600000023841858,
      "z": 0.0
    },
    {
      "name": "point 60",
      "x": 5.400000095367432,
      "y": 1.2999999523162842,
      "z": 0.0
    },
    {
      "name": "point 61",
      "x": 5.400000095367432,
      "y": 1.4500000476837158,
      "z": -0.25980764627456665
    },
    {
      "name": "point 62",
      "x": 5.400000095367432,
      "y": 1.75,
      "z": -0.25980761647224426
    },
    {
      "name": "point 63",
      "x": 5.400000095367432,
      "y": 1.9000000953674316,
      "z": 2.622683403785686e-08
    },
    {
      "name": "point 64",
      "x": 5.400000095367432,
      "y": 1.75,
      "z": 0.25980764627456665
    },
    {
      "name": "point 65",
      "x": 5.400000095367432,
      "y": 1.4499999284744263,
      "z": 0.2598075866699219
    },
    {
      "name": "point 66",
      "x": -1.7000000476837158,
      "y": 2.200000047683716,
      "z": 0.0
    },
    {
      "name": "point 67",
      "x": -1.7000000476837158,
      "y": 2.200000047683716,
      "z": 0.0
    },
    {
      "name": "point 68",
      "x": -1.7000000476837158,
      "y": 2.200000047683716,
      "z": 0.0
    },
    {
      "name": "point 69",
      "x": -1.7000000476837158,
      "y": 2.200000047683716,
      "z": 0.0
    },
    {
      "name": "point 70",
      "x": -1.7000000476837158,
      "y": 2.200000047683716,
      "z": 0.0
    },
    {
      "name": "point 71",
      "x": -1.7000000476837158,
      "y": 2.200000047683716,
      "z": 0.0
    },
    {
      "name": "point 72",
      "x": -1.144444465637207,
      "y": 2.200000047683716,
      "z": 0.20000000298023224
    },
    {
      "name": "point 73",
      "x": -1.144444465637207,
      "y": 2.3299038410186768,
      "z": 0.07499999552965164
    },
    {
      "name": "point 74",
      "x": -1.144444465637207,
      "y": 2.3299038410186768,
      "z": -0.07500001043081284
    },
    {
      "name": "point 75",
      "x": -1.144444465637207,
      "y": 2.200000047683716,
      "z": -0.20000000298023224
    },
    {
      "name": "point 76",
      "x": -1.144444465637207,
      "y": 2.070096254348755,
      "z": -0.07499998807907104
    },
    {
      "name": "point 77",
      "x": -1.144444465637207,
      "y": 2.070096254348755,
      "z": 0.07499998807907104
    },
    {
      "name": "point 78",
      "x": -0.5888888239860535,
      "y": 2.200000047683716,
      "z": 0.3499999940395355
    },
    {
      "name": "point 79",
      "x": -0.5888888239860535,
      "y": 2.3299038410186768,
      "z": 0.07499999552965164
    },
    {
      "name": "point 80",
      "x": -0.5888888239860535,
      "y": 2.3299038410186768,
      "z": -0.07500001043081284
    },
    {
      "name": "point 81",
      "x": -0.5888888239860535,
      "y": 2.200000047683716,
      "z": -0.3499999940395355
    },
    {
      "name": "point 82",
      "x": -0.5888888239860535,
      "y": 2.070096254348755,
      "z": -0.07499998807907104
    },
    {
      "name": "point 83",
      "x": -0.5888888239860535,
      "y": 2.070096254348755,
      "z": 0.07499998807907104
    },
    {
      "name": "point 84",
      "x": -0.03333336114883423,
      "y": 2.200000047683716,
      "z": 0.25
    },
    {
      "name": "point 85",
      "x": -0.03333336114883423,
      "y": 2.3299038410186768,
      "z": 0.07499999552965164
    },
    {
      "name": "point 86",
      "x": -0.03333336114883423,
      "y": 2.3299038410186768,
      "z": -0.07500001043081284
    },
    {
      "name": "point 87",
      "x": -0.03333336114883423,
      "y": 2.200000047683716,
      "z": -0.25
    },
    {
      "name": "point 88",
      "x": -0.03333336114883423,
      "y": 2.070096254348755,
      "z": -0.07499998807907104
    },
    {
      "name": "point 89",
      "x": -0.03333336114883423,
      "y": 2.070096254348755,
      "z": 0.07499998807907104
    },
    {
      "name": "point 90",
      "x": 0.5222223401069641,
      "y": 2.200000047683716,
      "z": 0.15000000596046448
    },
    {
      "name": "point 91",
      "x": 0.5222223401069641,
      "y": 2.3299038410186768,
      "z": 0.07499999552965164
    },
    {
      "name": "point 92",
      "x": 0.5222223401069641,
      "y": 2.3299038410186768,
      "z": -0.07500001043081284
    },
    {
      "name": "point 93",
      "x": 0.5222223401069641,
      "y": 2.200000047683716,
      "z": -0.15000000596046448
    },
    {
      "name": "point 94",
      "x": 0.5222223401069641,
      "y": 2.070096254348755,
      "z": -0.07499998807907104
    },
    {
      "name": "point 95",
      "x": 0.5222223401069641,
      "y": 2.070096254348755,
      "z": 0.07499998807907104
    },
    {
      "name": "point 96",
      "x": 1.077777624130249,
      "y": 2.200000047683716,
      "z": 0.15000000596046448
    },
    {
      "name": "point 97",
      "x": 1.077777624130249,
      "y": 2.3299038410186768,
      "z": 0.07499999552965164
    },
    {
      "name": "point 98",
      "x": 1.077777624130249,
      "y": 2.3299038410186768,
      "z": -0.07500001043081284
    },
    {
      "name": "point 99",
      "x": 1.077777624130249,
      "y": 2.200000047683716,
      "z": -0.15000000596046448
    },
    {
      "name": "point 100",
      "x": 1.077777624130249,
      "y": 2.070096254348755,
      "z": -0.07499998807907104
    },
    {
      "name": "point 101",
      "x": 1.077777624130249,
      "y": 2.070096254348755,
      "z": 0.07499998807907104
    },
    {
      "name": "point 102",
      "x": 1.6333332061767578,
      "y": 2.200000047683716,
      "z": 0.25
    },
    {
      "name": "point 103",
      "x": 1.6333332061767578,
      "y": 2.3299038410186768,
      "z": 0.07499999552965164
    },
    {
      "name": "point 104",
      "x": 1.6333332061767578,
      "y": 2.3299038410186768,
      "z": -0.07500001043081284
    },
    {
      "name": "point 105",
      "x": 1.6333332061767578,
      "y": 2.200000047683716,
      "z": -0.25
    },
    {
      "name": "point 106",
      "x": 1.6333332061767578,
      "y": 2.070096254348755,
      "z": -0.07499998807907104
    },
    {
      "name": "point 107",
      "x": 1.6333332061767578,
      "y": 2.070096254348755,
      "z": 0.07499998807907104
    },
    {
      "name": "point 108",
      "x": 2.1888887882232666,
      "y": 2.200000047683716,
      "z": 0.3499999940395355
    },
    {
      "name": "point 109",
      "x": 2.1888887882232666,
      "y": 2.3299038410186768,
      "z": 0.07499999552965164
    },
    {
      "name": "point 110",
      "x": 2.1888887882232666,
      "y": 2.3299038410186768,
      "z": -0.07500001043081284
    },
    {
      "name": "point 111",
      "x": 2.1888887882232666,
      "y": 2.200000047683716,
      "z": -0.3499999940395355
    },
    {
      "name": "point 112",
      "x": 2.1888887882232666,
      "y": 2.070096254348755,
      "z": -0.07499998807907104
    },
    {
      "name": "point 113",
      "x": 2.1888887882232666,
      "y": 2.070096254348755,
      "z": 0.07499998807907104
    },
    {
      "name": "point 114",
      "x": 2.7444446086883545,
      "y": 2.200000047683716,
      "z": 0.20000000298023224
    },
    {
      "name": "point 115",
      "x": 2.7444446086883545,
      "y": 2.3299038410186768,
      "z": 0.07499999552965164
    },
    {
      "name": "point 116",
      "x": 2.7444446086883545,
      "y": 2.3299038410186768,
      "z": -0.07500001043081284
    },
    {
      "name": "point 117",
      "x": 2.7444446086883545,
      "y": 2.200000047683716,
      "z": -0.20000000298023224
    },
    {
      "name": "point 118",
      "x": 2.7444446086883545,
      "y": 2.070096254348755,
      "z": -0.07499998807907104
    },
    {
      "name": "point 119",
      "x": 2.7444446086883545,
      "y": 2.070096254348755,
      "z": 0.07499998807907104
    },
    {
      "name": "point 120",
      "x": 3.299999952316284,
      "y": 2.200000047683716,
      "z": 0.0
    },
    {
      "name": "point 121",
      "x": 3.299999952316284,
      "y": 2.200000047683716,
      "z": 0.0
    },
    {
      "name": "point 122",
      "x": 3.299999952316284,
      "y": 2.200000047683716,
      "z": 0.0
    },
    {
      "name": "point 123",
      "x": 3.299999952316284,
      "y": 2.200000047683716,
      "z": 0.0
    },
    {
      "name": "point 124",
      "x": 3.299999952316284,
      "y": 2.200000047683716,
      "z": 0.0
    },
    {
      "name": "point 125",
      "x": 3.299999952316284,
      "y": 2.200000047683716,
      "z": 0.0
    },
    {
      "name": "point 126",
      "x": 0.800000011920929,
      "y": 1.3300000429153442,
      "z": 1.5
    },
    {
      "name": "point 127",
      "x": 2.299999952316284,
      "y": 1.3300000429153442,
      "z": -3.4969112050475815e-08
    },
    {
      "name": "point 128",
      "x": 0.7999999523162842,
      "y": 1.3300000429153442,
      "z": -1.5
    },
    {
      "name": "point 129",
      "x": -0.699999988079071,
      "y": 1.3300000429153442,
      "z": 9.539904866073812e-09
    },
    {
      "name": "point 130",
      "x": 0.800000011920929,
      "y": 1.7633333206176758,
      "z": 0.10000002384185791
    },
    {
      "name": "point 131",
      "x": 0.9000000357627869,
      "y": 1.7633333206176758,
      "z": -3.4969112050475815e-08
    },
    {
      "name": "point 132",
      "x": 0.7999999523162842,
      "y": 1.7633333206176758,
      "z": -0.10000002384185791
    },
    {
      "name": "point 133",
      "x": 0.699999988079071,
      "y": 1.9630000591278076,
      "z": 9.539904866073812e-09
    },
    {
      "name": "point 134",
      "x": 0.800000011920929,
      "y": 2.196666717529297,
      "z": 0.10000002384185791
    },
    {
      "name": "point 135",
      "x": 0.9000000357627869,
      "y": 2.196666717529297,
      "z": -3.4969112050475815e-08
    },
    {
      "name": "point 136",
      "x": 0.7999999523162842,
      "y": 2.196666717529297,
      "z": -0.10000002384185791
    },
    {
      "name": "point 137",
      "x": 0.699999988079071,
      "y": 2.196666717529297,
      "z": 9.539904866073812e-09
    },
    {
      "name": "point 138",
      "x": 0.800000011920929,
      "y": 2.630000114440918,
      "z": 0.800000011920929
    },
    {
      "name": "point 139",
      "x": 1.600000023841858,
      "y": 2.630000114440918,
      "z": -3.4969112050475815e-08
    },
    {
      "name": "point 140",
      "x": 0.7999999523162842,
      "y": 2.630000114440918,
      "z": -0.800000011920929
    },
    {
      "name": "point 141",
      "x": 0.0,
      "y": 2.630000114440918,
      "z": 9.539904866073812e-09
    },
    {
      "name": "point 142",
      "x": 2.5,
      "y": 1.9500000476837158,
      "z": 0.0
    },
    {
      "name": "point 143",
      "x": 2.5,
      "y": 1.600000023841858,
      "z": 0.3499999940395355
    },
    {
      "name": "point 144",
      "x": 2.5,
      "y": 1.25,
      "z": -3.059797037963108e-08
    },
    {
      "name": "point 145",
      "x": 2.5,
      "y": 1.600000023841858,
      "z": -0.3499999940395355
    },
    {
      "name": "point 146",
      "x": 3.0,
      "y": 1.9500000476837158,
      "z": 0.0
    },
    {
      "name": "point 147",
      "x": 3.0,
      "y": 1.600000023841858,
      "z": 0.3499999940395355
    },
    {
      "name": "point 148",
      "x": 3.0,
      "y": 1.25,
      "z": -3.059797037963108e-08
    },
    {
      "name": "point 149",
      "x": 3.0,
      "y": 1.600000023841858,
      "z": -0.3499999940395355
    },
    {
      "name": "point 150",
      "x": 3.5,
      "y": 1.9500000476837158,
      "z": 0.0
    },
    {
      "name": "point 151",
      "x": 3.5,
      "y": 1.600000023841858,
      "z": 0.3499999940395355
    },
    {
      "name": "point 152",
      "x": 3.5,
      "y": 1.25,
      "z": -3.059797037963108e-08
    },
    {
      "name": "point 153",
      "x": 3.5,
      "y": 1.600000023841858,
      "z": -0.3499999940395355
    },
    {
      "name": "point 154",
      "x": 4.0,
      "y": 1.4000000953674316,
      "z": 0.0
    },
    {
      "name": "point 155",
      "x": 4.0,
      "y": 1.2000000476837158,
      "z": 0.20000000298023224
    },
    {
      "name": "point 156",
      "x": 4.0,
      "y": 1.0,
      "z": -1.7484556025237907e-08
    },
    {
      "name": "point 157",
      "x": 4.0,
      "y": 1.2000000476837158,
      "z": -0.20000000298023224
    },
    {
      "name": "point 158",
      "x": 4.800000190734863,
      "y": 0.8999999761581421,
      "z": 0.0
    },
    {
      "name": "point 159",
      "x": 4.800000190734863,
      "y": 0.699999988079071,
      "z": 0.20000000298023224
    },
    {
      "name": "point 160",
      "x": 4.669031620025635,
      "y": 0.5655224323272705,
      "z": -1.7484556025237907e-08
    },
    {
      "name": "point 161",
      "x": 4.800000190734863,
      "y": 0.699999988079071,
      "z": -0.20000000298023224
    },
    {
      "name": "point 162",
      "x": 5.0,
      "y": 0.8999999761581421,
      "z": 0.0
    },
    {
      "name": "point 163",
      "x": 5.0,
      "y": 0.699999988079071,
      "z": 0.20000000298023224
    },
    {
      "name": "point 164",
      "x": 4.949946403503418,
      "y": 0.5500096678733826,
      "z": -1.7484556025237907e-08
    },
    {
      "name": "point 165",
      "x": 5.0,
      "y": 0.699999988079071,
      "z": -0.20000000298023224
    },
    {
      "name": "point 166",
      "x": 5.199999809265137,
      "y": 0.8999999761581421,
      "z": 0.0
    },
    {
      "name": "point 167",
      "x": 5.199999809265137,
      "y": 0.699999988079071,
      "z": 0.20000000298023224
    },
    {
      "name": "point 168",
      "x": 5.45078706741333,
      "y": 0.6119434237480164,
      "z": -1.7484556025237907e-08
    },
    {
      "name": "point 169",
      "x": 5.199999809265137,
      "y": 0.699999988079071,
      "z": -0.20000000298023224
    },
    {
      "name": "point 170",
      "x": 5.383381366729736,
      "y": 1.0,
      "z": 0.0
    },
    {
      "name": "point 171",
      "x": 5.602174282073975,
      "y": 0.9334046244621277,
      "z": 0.15000000596046448
    },
    {
      "name": "point 172",
      "x": 5.699644565582275,
      "y": 0.9185590147972107,
      "z": -1.311341701892843e-08
    },
    {
      "name": "point 173",
      "x": 5.602174282073975,
      "y": 0.9334046244621277,
      "z": -0.15000000596046448
    },
    {
      "name": "point 174",
      "x": 5.400000095367432,
      "y": 1.2999999523162842,
      "z": 0.0
    },
    {
      "name": "point 175",
      "x": 5.5,
      "y": 1.2999999523162842,
      "z": 0.10000000149011612
    },
    {
      "name": "point 176",
      "x": 5.857000350952148,
      "y": 1.2999999523162842,
      "z": -8.742278012618954e-09
    },
    {
      "name": "point 177",
      "x": 5.5,
      "y": 1.2999999523162842,
      "z": -0.10000000149011612
    },
    {
      "name": "point 178",
      "x": 5.300000190734863,
      "y": 1.5,
      "z": 0.0
    },
    {
      "name": "point 179",
      "x": 5.400000095367432,
      "y": 1.5,
      "z": 0.10000000149011612
    },
    {
      "name": "point 180",
      "x": 5.795499324798584,
      "y": 1.7477028369903564,
      "z": 0.0
    },
    {
      "name": "point 181",
      "x": 5.400000095367432,
      "y": 1.5,
      "z": -0.10000000149011612
    },
    {
      "name": "point 182",
      "x": 5.200000286102295,
      "y": 1.600000023841858,
      "z": 0.0
    },
    {
      "name": "point 183",
      "x": 5.300000190734863,
      "y": 1.600000023841858,
      "z": 0.10000000149011612
    },
    {
      "name": "point 184",
      "x": 5.400000095367432,
      "y": 1.600000023841858,
      "z": -8.742278012618954e-09
    },
    {
      "name": "point 185",
      "x": 5.300000190734863,
      "y": 1.600000023841858,
      "z": -0.10000000149011612
    },
    {
      "name": "point 186",
      "x": 4.222227096557617,
      "y": 1.8045412302017212,
      "z": -0.10000000149011612
    },
    {
      "name": "point 187",
      "x": 4.222227096557617,
      "y": 1.8045412302017212,
      "z": -0.06666666269302368
    },
    {
      "name": "point 188",
      "x": 4.222227096557617,
      "y": 1.8045412302017212,
      "z": -0.03333333134651184
    },
    {
      "name": "point 189",
      "x": 4.222227096557617,
      "y": 1.8045412302017212,
      "z": 0.0
    },
    {
      "name": "point 190",
      "x": 4.222227096557617,
      "y": 1.8045412302017212,
      "z": 0.03333333879709244
    },
    {
      "name": "point 191",
      "x": 4.222227096557617,
      "y": 1.8045412302017212,
      "z": 0.06666667014360428
    },
    {
      "name": "point 192",
      "x": 4.222227096557617,
      "y": 1.8045412302017212,
      "z": 0.10000000149011612
    },
    {
      "name": "point 193",
      "x": 4.55556058883667,
      "y": 1.8045412302017212,
      "z": -0.10000000149011612
    },
    {
      "name": "point 194",
      "x": 4.55556058883667,
      "y": 1.8045412302017212,
      "z": -0.06666666269302368
    },
    {
      "name": "point 195",
      "x": 4.55556058883667,
      "y": 1.8045412302017212,
      "z": -0.03333333134651184
    },
    {
      "name": "point 196",
      "x": 4.55556058883667,
      "y": 1.8045412302017212,
      "z": 0.0
    },
    {
      "name": "point 197",
      "x": 4.55556058883667,
      "y": 1.8045412302017212,
      "z": 0.03333333879709244
    },
    {
      "name": "point 198",
      "x": 4.55556058883667,
      "y": 1.8045412302017212,
      "z": 0.06666667014360428
    },
    {
      "name": "point 199",
      "x": 4.55556058883667,
      "y": 1.8045412302017212,
      "z": 0.10000000149011612
    },
    {
      "name": "point 200",
      "x": 5.4158034324646,
      "y": 1.8045412302017212,
      "z": -0.10000000149011612
    },
    {
      "name": "point 201",
      "x": 5.4158034324646,
      "y": 1.8045412302017212,
      "z": -0.06666666269302368
    },
    {
      "name": "point 202",
      "x": 5.5506086349487305,
      "y": 3.3968982696533203,
      "z": -0.03333333134651184
    },
    {
      "name": "point 203",
      "x": 5.509749412536621,
      "y": 3.48759388923645,
      "z": 0.0
    },
    {
      "name": "point 204",
      "x": 5.5506086349487305,
      "y": 3.3968982696533203,
      "z": 0.03333333879709244
    },
    {
      "name": "point 205",
      "x": 5.4158034324646,
      "y": 1.8045412302017212,
      "z": 0.06666667014360428
    },
    {
      "name": "point 206",
      "x": 5.4158034324646,
      "y": 1.8045412302017212,
      "z": 0.10000000149011612
    },
    {
      "name": "point 207",
      "x": 5.586702823638916,
      "y": 1.5877412557601929,
      "z": -0.10000000149011612
    },
    {
      "name": "point 208",
      "x": 5.653304576873779,
      "y": 1.5877412557601929,
      "z": -0.06666666269302368
    },
    {
      "name": "point 209",
      "x": 5.653000354766846,
      "y": 1.5877412557601929,
      "z": -0.03333333134651184
    },
    {
      "name": "point 210",
      "x": 5.6529998779296875,
      "y": 1.5877412557601929,
      "z": 0.0
    },
    {
      "name": "point 211",
      "x": 5.653409957885742,
      "y": 1.5877412557601929,
      "z": 0.03333333879709244
    },
    {
      "name": "point 212",
      "x": 5.653304576873779,
      "y": 1.5877412557601929,
      "z": 0.06666667014360428
    },
    {
      "name": "point 213",
      "x": 5.586702823638916,
      "y": 1.5877412557601929,
      "z": 0.10000000149011612
    },
    {
      "name": "point 1086",
      "x": -0.5031265616416931,
      "y": 1.2729374170303345,
      "z": 0.7394425272941589
    },
    {
      "name": "point 1087",
      "x": -0.21177810430526733,
      "y": 1.634161353111267,
      "z": 0.683363676071167
    },
    {
      "name": "point 1088",
      "x": -0.21177810430526733,
      "y": 1.6341612339019775,
      "z": 0.48336362838745117
    },
    {
      "name": "point 1089",
      "x": -0.21177810430526733,
      "y": 1.4609562158584595,
      "z": 0.38336366415023804
    },
    {
      "name": "point 1090",
      "x": -0.21177810430526733,
      "y": 1.2877510786056519,
      "z": 0.48336365818977356
    },
    {
      "name": "point 1091",
      "x": -0.21177810430526733,
      "y": 1.2877510786056519,
      "z": 0.6833636164665222
    },
    {
      "name": "point 1092",
      "x": -0.04511141777038574,
      "y": 1.4609562158584595,
      "z": 0.7833636403083801
    },
    {
      "name": "point 1093",
      "x": -0.04511141777038574,
      "y": 1.634161353111267,
      "z": 0.683363676071167
    },
    {
      "name": "point 1094",
      "x": -0.04511141777038574,
      "y": 1.6341612339019775,
      "z": 0.48336362838745117
    },
    {
      "name": "point 1095",
      "x": -0.04511141777038574,
      "y": 1.4609562158584595,
      "z": 0.38336366415023804
    },
    {
      "name": "point 1096",
      "x": -0.04511141777038574,
      "y": 1.2877510786056519,
      "z": 0.48336365818977356
    },
    {
      "name": "point 1097",
      "x": -0.04511141777038574,
      "y": 1.2877510786056519,
      "z": 0.6833636164665222
    },
    {
      "name": "point 1098",
      "x": 0.23658090829849243,
      "y": 1.6716845035552979,
      "z": 0.8880717754364014
    },
    {
      "name": "point 1099",
      "x": 0.16688497364521027,
      "y": 1.7150044441223145,
      "z": 0.6068354845046997
    },
    {
      "name": "point 1100",
      "x": 0.15231028199195862,
      "y": 1.7764201164245605,
      "z": 0.15303821861743927
    },
    {
      "name": "point 1101",
      "x": 0.16688497364521027,
      "y": 1.5568159818649292,
      "z": 0.30683568120002747
    },
    {
      "name": "point 1102",
      "x": 0.16688497364521027,
      "y": 1.3836108446121216,
      "z": 0.406835675239563
    },
    {
      "name": "point 1103",
      "x": 0.16688497364521027,
      "y": 1.3836108446121216,
      "z": 0.6068354845046997
    },
    {
      "name": "point 1104",
      "x": 0.4032473564147949,
      "y": 1.6716845035552979,
      "z": 0.8880717754364014
    },
    {
      "name": "point 1105",
      "x": 0.3335513770580292,
      "y": 1.7150044441223145,
      "z": 0.6068354845046997
    },
    {
      "name": "point 1106",
      "x": 0.31897667050361633,
      "y": 1.7764201164245605,
      "z": 0.15303821861743927
    },
    {
      "name": "point 1107",
      "x": 0.3335513770580292,
      "y": 1.5568159818649292,
      "z": 0.30683568120002747
    },
    {
      "name": "point 1108",
      "x": 0.3335513770580292,
      "y": 1.3836108446121216,
      "z": 0.406835675239563
    },
    {
      "name": "point 1109",
      "x": 0.3335513770580292,
      "y": 1.3836108446121216,
      "z": 0.6068354845046997
    },
    {
      "name": "point 1110",
      "x": 0.5699141025543213,
      "y": 1.6716845035552979,
      "z": 0.8880717754364014
    },
    {
      "name": "point 1111",
      "x": 0.5002180337905884,
      "y": 1.7150044441223145,
      "z": 0.6068354845046997
    },
    {
      "name": "point 1112",
      "x": 0.48564332723617554,
      "y": 1.7764201164245605,
      "z": 0.15303821861743927
    },
    {
      "name": "point 1113",
      "x": 0.5002180337905884,
      "y": 1.5568159818649292,
      "z": 0.30683568120002747
    },
    {
      "name": "point 1114",
      "x": 0.5002180337905884,
      "y": 1.3836108446121216,
      "z": 0.406835675239563
    },
    {
      "name": "point 1115",
      "x": 0.5002180337905884,
      "y": 1.3836108446121216,
      "z": 0.6068354845046997
    },
    {
      "name": "point 1116",
      "x": 0.66688472032547,
      "y": 1.5568159818649292,
      "z": 0.7068355083465576
    },
    {
      "name": "point 1117",
      "x": 0.66688472032547,
      "y": 1.7150044441223145,
      "z": 0.6068354845046997
    },
    {
      "name": "point 1118",
      "x": 0.6523100733757019,
      "y": 1.7764201164245605,
      "z": 0.15303821861743927
    },
    {
      "name": "point 1119",
      "x": 0.66688472032547,
      "y": 1.5568159818649292,
      "z": 0.30683568120002747
    },
    {
      "name": "point 1120",
      "x": 0.66688472032547,
      "y": 1.3836108446121216,
      "z": 0.406835675239563
    },
    {
      "name": "point 1121",
      "x": 0.66688472032547,
      "y": 1.3836108446121216,
      "z": 0.6068354845046997
    },
    {
      "name": "point 1122",
      "x": 1.6998400688171387,
      "y": 1.697668194770813,
      "z": 0.31734198331832886
    },
    {
      "name": "point 1123",
      "x": 0.8475754857063293,
      "y": 1.7300211191177368,
      "z": 0.4784797728061676
    },
    {
      "name": "point 1124",
      "x": 0.8189768195152283,
      "y": 1.7764201164245605,
      "z": 0.15303821861743927
    },
    {
      "name": "point 1125",
      "x": 0.8335514664649963,
      "y": 1.5568159818649292,
      "z": 0.30683568120002747
    },
    {
      "name": "point 1126",
      "x": 0.8335514664649963,
      "y": 1.3836108446121216,
      "z": 0.406835675239563
    },
    {
      "name": "point 1127",
      "x": 0.8475754857063293,
      "y": 1.3836108446121216,
      "z": 0.4784797728061676
    },
    {
      "name": "point 1086a",
      "x": -0.5031265616416931,
      "y": 1.2729374170303345,
      "z": -0.7394425272941589
    },
    {
      "name": "point 1087a",
      "x": -0.21177810430526733,
      "y": 1.634161353111267,
      "z": -0.683363676071167
    },
    {
      "name": "point 1088a",
      "x": -0.21177810430526733,
      "y": 1.6341612339019775,
      "z": -0.48336362838745117
    },
    {
      "name": "point 1089a",
      "x": -0.21177810430526733,
      "y": 1.4609562158584595,
      "z": -0.38336366415023804
    },
    {
      "name": "point 1090a",
      "x": -0.21177810430526733,
      "y": 1.2877510786056519,
      "z": -0.48336365818977356
    },
    {
      "name": "point 1091a",
      "x": -0.21177810430526733,
      "y": 1.2877510786056519,
      "z": -0.6833636164665222
    },
    {
      "name": "point 1092a",
      "x": -0.04511141777038574,
      "y": 1.4609562158584595,
      "z": -0.7833636403083801
    },
    {
      "name": "point 1093a",
      "x": -0.04511141777038574,
      "y": 1.634161353111267,
      "z": -0.683363676071167
    },
    {
      "name": "point 1094a",
      "x": -0.04511141777038574,
      "y": 1.6341612339019775,
      "z": -0.48336362838745117
    },
    {
      "name": "point 1095a",
      "x": -0.04511141777038574,
      "y": 1.4609562158584595,
      "z": -0.38336366415023804
    },
    {
      "name": "point 1096a",
      "x": -0.04511141777038574,
      "y": 1.2877510786056519,
      "z": -0.48336365818977356
    },
    {
      "name": "point 1097a",
      "x": -0.04511141777038574,
      "y": 1.2877510786056519,
      "z": -0.6833636164665222
    },
    {
      "name": "point 1098a",
      "x": 0.23658090829849243,
      "y": 1.6716845035552979,
      "z": -0.8880717754364014
    },
    {
      "name": "point 1099a",
      "x": 0.16688497364521027,
      "y": 1.7150044441223145,
      "z": -0.6068354845046997
    },
    {
      "name": "point 1100a",
      "x": 0.15231028199195862,
      "y": 1.7764201164245605,
      "z": -0.15303821861743927
    },
    {
      "name": "point 1101a",
      "x": 0.16688497364521027,
      "y": 1.5568159818649292,
      "z": -0.30683568120002747
    },
    {
      "name": "point 1102a",
      "x": 0.16688497364521027,
      "y": 1.3836108446121216,
      "z": -0.406835675239563
    },
    {
      "name": "point 1103a",
      "x": 0.16688497364521027,
      "y": 1.3836108446121216,
      "z": -0.6068354845046997
    },
    {
      "name": "point 1104a",
      "x": 0.4032473564147949,
      "y": 1.6716845035552979,
      "z": -0.8880717754364014
    },
    {
      "name": "point 1105a",
      "x": 0.3335513770580292,
      "y": 1.7150044441223145,
      "z": -0.6068354845046997
    },
    {
      "name": "point 1106a",
      "x": 0.31897667050361633,
      "y": 1.7764201164245605,
      "z": -0.15303821861743927
    },
    {
      "name": "point 1107a",
      "x": 0.3335513770580292,
      "y": 1.5568159818649292,
      "z": -0.30683568120002747
    },
    {
      "name": "point 1108a",
      "x": 0.3335513770580292,
      "y": 1.3836108446121216,
      "z": -0.406835675239563
    },
    {
      "name": "point 1109a",
      "x": 0.3335513770580292,
      "y": 1.3836108446121216,
      "z": -0.6068354845046997
    },
    {
      "name": "point 1110a",
      "x": 0.5699141025543213,
      "y": 1.6716845035552979,
      "z": -0.8880717754364014
    },
    {
      "name": "point 1111a",
      "x": 0.5002180337905884,
      "y": 1.7150044441223145,
      "z": -0.6068354845046997
    },
    {
      "name": "point 1112a",
      "x": 0.48564332723617554,
      "y": 1.7764201164245605,
      "z": -0.15303821861743927
    },
    {
      "name": "point 1113a",
      "x": 0.5002180337905884,
      "y": 1.5568159818649292,
      "z": -0.30683568120002747
    },
    {
      "name": "point 1114a",
      "x": 0.5002180337905884,
      "y": 1.3836108446121216,
      "z": -0.406835675239563
    },
    {
      "name": "point 1115a",
      "x": 0.5002180337905884,
      "y": 1.3836108446121216,
      "z": -0.6068354845046997
    },
    {
      "name": "point 1116a",
      "x": 0.66688472032547,
      "y": 1.5568159818649292,
      "z": -0.7068355083465576
    },
    {
      "name": "point 1117a",
      "x": 0.66688472032547,
      "y": 1.7150044441223145,
      "z": -0.6068354845046997
    },
    {
      "name": "point 1118a",
      "x": 0.6523100733757019,
      "y": 1.7764201164245605,
      "z": -0.15303821861743927
    },
    {
      "name": "point 1119a",
      "x": 0.66688472032547,
      "y": 1.5568159818649292,
      "z": -0.30683568120002747
    },
    {
      "name": "point 1120a",
      "x": 0.66688472032547,
      "y": 1.3836108446121216,
      "z": -0.406835675239563
    },
    {
      "name": "point 1121a",
      "x": 0.66688472032547,
      "y": 1.3836108446121216,
      "z": -0.6068354845046997
    },
    {
      "name": "point 1122a",
      "x": 1.6998400688171387,
      "y": 1.697668194770813,
      "z": -0.31734198331832886
    },
    {
      "name": "point 1123a",
      "x": 0.8475754857063293,
      "y": 1.7300211191177368,
      "z": -0.4784797728061676
    },
    {
      "name": "point 1124a",
      "x": 0.8189768195152283,
      "y": 1.7764201164245605,
      "z": -0.15303821861743927
    },
    {
      "name": "point 1125a",
      "x": 0.8335514664649963,
      "y": 1.5568159818649292,
      "z": -0.30683568120002747
    },
    {
      "name": "point 1126a",
      "x": 0.8335514664649963,
      "y": 1.3836108446121216,
      "z": -0.406835675239563
    },
    {
      "name": "point 1127a",
      "x": 0.8475754857063293,
      "y": 1.3836108446121216,
      "z": -0.4784797728061676
    }
  ],
  "surfacesC0": [
    {
      "cylinder": true,
      "flakeU": 2,
      "flakeV": 3,
      "name": "rotor",
      "points": [
        [
          66,
          67,
          68,
          69,
          70,
          71,
          66
        ],
        [
          72,
          73,
          74,
          75,
          76,
          77,
          72
        ],
        [
          78,
          79,
          80,
          81,
          82,
          83,
          78
        ],
        [
          84,
          85,
          86,
          87,
          88,
          89,
          84
        ],
        [
          90,
          91,
          92,
          93,
          94,
          95,
          90
        ],
        [
          96,
          97,
          98,
          99,
          100,
          101,
          96
        ],
        [
          102,
          103,
          104,
          105,
          106,
          107,
          102
        ],
        [
          108,
          109,
          110,
          111,
          112,
          113,
          108
        ],
        [
          114,
          115,
          116,
          117,
          118,
          119,
          114
        ],
        [
          120,
          121,
          122,
          123,
          124,
          125,
          120
        ]
      ],
      "u": 9,
      "v": 3
    },
    {
      "cylinder": false,
      "flakeU": 2,
      "flakeV": 1,
      "name": "fin",
      "points": [
        [
          186,
          187,
          188,
          189,
          190,
          191,
          192
        ],
        [
          193,
          194,
          195,
          196,
          197,
          198,
          199
        ],
        [
          200,
          201,
          202,
          203,
          204,
          205,
          206
        ],
        [
          207,
          208,
          209,
          210,
          211,
          212,
          213
        ]
      ],
      "u": 16,
      "v": 16
    },
    {
      "cylinder": true,
      "flakeU": 2,
      "flakeV": 2,
      "name": "winglet left",
      "points": [
        [
          214,
          215,
          216,
          217,
          218,
          219,
          214
        ],
        [
          220,
          221,
          222,
          223,
          224,
          225,
          220
        ],
        [
          226,
          227,
          228,
          229,
          230,
          231,
          226
        ],
        [
          232,
          233,
          234,
          235,
          236,
          237,
          232
        ],
        [
          238,
          239,
          240,
          241,
          242,
          243,
          238
        ],
        [
          244,
          245,
          246,
          247,
          248,
          249,
          244
        ],
        [
          250,
          251,
          252,
          253,
          254,
          255,
          250
        ]
      ],
      "u": 5,
      "v": 5
    },
    {
      "cylinder": true,
      "flakeU": 2,
      "flakeV": 2,
      "name": "winglet right",
      "points": [
        [
          256,
          257,
          258,
          259,
          260,
          261,
          256
        ],
        [
          262,
          263,
          264,
          265,
          266,
          267,
          262
        ],
        [
          268,
          269,
          270,
          271,
          272,
          273,
          268
        ],
        [
          274,
          275,
          276,
          277,
          278,
          279,
          274
        ],
        [
          280,
          281,
          282,
          283,
          284,
          285,
          280
        ],
        [
          286,
          287,
          288,
          289,
          290,
          291,
          286
        ],
        [
          292,
          293,
          294,
          295,
          296,
          297,
          292
        ]
      ],
      "u": 5,
      "v": 5
    }
  ],
  "surfacesC2": [
    {
      "cylinder": true,
      "flakeU": 6,
      "flakeV": 8,
      "name": "body",
      "points": [
        [
          0,
          1,
          2,
          3,
          4,
          5,
          0,
          1,
          2
        ],
        [
          6,
          7,
          8,
          9,
          10,
          11,
          6,
          7,
          8
        ],
        [
          12,
          13,
          14,
          15,
          16,
          17,
          12,
          13,
          14
        ],
        [
          18,
          19,
          20,
          21,
          22,
          23,
          18,
          19,
          20
        ],
        [
          24,
          25,
          26,
          27,
          28,
          29,
          24,
          25,
          26
        ],
        [
          30,
          31,
          32,
          33,
          34,
          35,
          30,
          31,
          32
        ],
        [
          36,
          37,
          38,
          39,
          40,
          41,
          36,
          37,
          38
        ],
        [
          42,
          43,
          44,
          45,
          46,
          47,
          42,
          43,
          44
        ],
        [
          48,
          49,
          50,
          51,
          52,
          53,
          48,
          49,
          50
        ],
        [
          54,
          55,
          56,
          57,
          58,
          59,
          54,
          55,
          56
        ],
        [
          60,
          61,
          62,
          63,
          64,
          65,
          60,
          61,
          62
        ]
      ],
      "u": 6,
      "v": 6
    },
    {
      "cylinder": true,
      "flakeU": 4,
      "flakeV": 1,
      "name": "axis",
      "points": [
        [
          126,
          127,
          128,
          129,
          126,
          127,
          128
        ],
        [
          130,
          131,
          132,
          133,
          130,
          131,
          132
        ],
        [
          134,
          135,
          136,
          137,
          134,
          135,
          136
        ],
        [
          138,
          139,
          140,
          141,
          138,
          139,
          140
        ]
      ],
      "u": 3,
      "v": 3
    },
    {
      "cylinder": true,
      "flakeU": 4,
      "flakeV": 8,
      "name": "loop",
      "points": [
        [
          142,
          143,
          144,
          145,
          142,
          143,
          144
        ],
        [
          146,
          147,
          148,
          149,
          146,
          147,
          148
        ],
        [
          150,
          151,
          152,
          153,
          150,
          151,
          152
        ],
        [
          154,
          155,
          156,
          157,
          154,
          155,
          156
        ],
        [
          158,
          159,
          160,
          161,
          158,
          159,
          160
        ],
        [
          162,
          163,
          164,
          165,
          162,
          163,
          164
        ],
        [
          166,
          167,
          168,
          169,
          166,
          167,
          168
        ],
        [
          170,
          171,
          172,
          173,
          170,
          171,
          172
        ],
        [
          174,
          175,
          176,
          177,
          174,
          175,
          176
        ],
        [
          178,
          179,
          180,
          181,
          178,
          179,
          180
        ],
        [
          182,
          183,
          184,
          185,
          182,
          183,
          184
        ]
      ],
      "u": 3,
      "v": 3
    }
  ],
  "toruses": []
}